<?xml version="1.0" encoding="UTF-8"?>
<!DOCTYPE svg PUBLIC "-//W3C//DTD SVG 1.1//EN" "http://www.w3.org/Graphics/SVG/1.1/DTD/svg11.dtd">
<!-- Creator: CorelDRAW X8 -->
<svg xmlns="http://www.w3.org/2000/svg" xml:space="preserve" width="170mm" height="81.4418mm" version="1.1" style="shape-rendering:geometricPrecision; text-rendering:geometricPrecision; image-rendering:optimizeQuality; fill-rule:evenodd; clip-rule:evenodd"
viewBox="0 0 19267 9230"
 xmlns:xlink="http://www.w3.org/1999/xlink">
 <defs>
  <font id="FontID0" horiz-adv-x="476" font-variant="normal" style="fill-rule:nonzero" font-style="normal" font-weight="400">
	<font-face 
		font-family="Cronus Round">
		<font-face-src>
			<font-face-name name="Cronus Round"/>
		</font-face-src>
	</font-face>
   <missing-glyph><path d="M0 0z"/></missing-glyph>
   <glyph unicode="D" horiz-adv-x="465" d="M323.669 201.668c0,-36.8385 -12.999,-67.9979 -39.005,-93.8366 -25.998,-25.998 -57.3327,-38.997 -93.6614,-38.997l-122.168 0 0 542.996 122.168 0c36.3287,0 67.6634,-12.999 93.6614,-38.997 26.006,-26.1653 39.005,-57.3327 39.005,-93.8366l0 -277.328zm-289.499 478.996c-9.50234,0 -17.34,-3.3294 -23.8395,-10.3307 -6.83404,-6.49951 -10.3307,-14.3371 -10.3307,-23.8315l0 -612.332c0,-9.50234 3.49667,-17.34 10.3307,-23.8395 6.49951,-6.83404 14.3371,-10.3307 23.8395,-10.3307l169.497 0c2.1665,0 4.8348,0.334533 7.82967,1.0036 51.0004,5.16137 94.0039,26.9937 128.835,65.3296 34.8313,38.5032 52.1713,83.4979 52.1713,135.335l0 277.328c0,55.668 -19.6738,103.172 -59.0053,142.503 -39.3316,39.4988 -86.8273,59.1646 -142.495,59.1646l-156.832 0z"/>
   <glyph unicode="U" horiz-adv-x="476" d="M0 191.337c0,-55.668 19.6658,-103.172 58.9974,-142.503 39.4988,-39.3316 87.0026,-58.9974 142.671,-59.1646 55.668,0.167267 103.164,19.8331 142.495,59.1646 39.5068,39.3316 59.1726,86.8353 59.1726,142.503l0 454.663c0,9.83688 -3.50464,17.8338 -10.3387,24.3333 -6.49951,7.00131 -14.4964,10.3307 -24.3333,10.3307 -9.49438,0 -17.4993,-3.3294 -23.9988,-10.3307 -6.83404,-6.49951 -10.1634,-14.4964 -10.1634,-24.3333l0 -454.663c0,-36.3367 -12.8317,-67.6713 -38.6705,-93.6694 -25.998,-25.998 -57.3327,-39.005 -94.1632,-39.005 -36.504,0 -67.6713,13.007 -93.8366,39.005 -25.998,25.998 -38.997,57.3327 -38.997,93.6694l0 454.663c0,9.83688 -3.33737,17.8338 -10.1714,24.3333 -6.49951,7.00131 -14.6637,10.3307 -24.4926,10.3307 -9.50234,0 -17.34,-3.3294 -23.8395,-10.3307 -6.83404,-6.49951 -10.3307,-14.4964 -10.3307,-24.3333l0 -454.663z"/>
   <glyph unicode="t" horiz-adv-x="268" d="M151.83 363.335c9.50234,0 17.4993,3.3294 24.0068,10.1634 6.82607,6.83404 10.1634,14.9982 10.1634,24.5006 0,9.33508 -3.33737,17.4993 -10.1634,24.3333 -6.50747,6.49951 -14.5044,9.83688 -24.0068,9.83688l-24.3333 0 0 120.496c0,9.50234 -3.49667,17.6665 -10.3307,24.5006 -6.49951,6.49951 -14.4964,9.83688 -23.8315,9.83688 -9.83688,0 -18.0011,-3.33737 -24.5006,-9.83688 -6.83404,-6.83404 -10.1714,-14.9982 -10.1714,-24.5006l0 -120.496 -24.4926 0c-9.50234,0 -17.34,-3.33737 -23.8395,-9.83688 -6.83404,-6.83404 -10.3307,-14.9982 -10.3307,-24.3333 0,-9.50234 3.49667,-17.6665 10.3307,-24.5006 6.49951,-6.83404 14.3371,-10.1634 23.8395,-10.1634l24.4926 0 0 -268.67c0.334533,-23.3297 8.17217,-43.8318 23.8395,-61.4984 18.4949,-22.1668 44.6682,-33.1666 78.1613,-33.1666 9.50234,0 17.4993,3.49667 24.3333,10.3307 6.49951,6.49951 9.83688,14.3371 9.83688,23.8395 0,9.82891 -3.33737,17.9931 -9.83688,24.4926 -6.83404,6.83404 -14.831,10.1714 -24.3333,10.1714 -12.999,0 -22.3341,3.49667 -27.83,10.3307 -1.99924,2.50104 -3.49667,5.50387 -4.333,8.66601 -0.669067,2.33377 -1.0036,4.8348 -1.0036,7.33584l0 268.168 24.3333 0z"/>
   <glyph unicode="n" horiz-adv-x="389" d="M316.333 280.331c0,43.5053 -15.3328,80.8376 -46.3329,111.838 -30.8328,30.8328 -68.1652,46.3329 -111.83,46.3329 -43.5053,0 -80.8376,-15.5 -111.838,-46.3329 -30.8328,-31.0001 -46.3329,-68.3324 -46.3329,-111.838l0 -246.161c0,-9.50234 3.49667,-17.34 10.3307,-23.8395 6.49951,-6.83404 14.3371,-10.3307 23.8395,-10.3307 9.82891,0 17.9931,3.49667 24.4926,10.3307 6.83404,6.49951 10.1714,14.3371 10.1714,23.8395l0 246.161c0,24.6679 8.66601,45.839 25.8308,63.5056 17.6665,17.1647 38.8377,25.8308 63.5056,25.8308 24.8272,0 45.8311,-8.66601 62.9958,-25.8308 17.6665,-17.6665 26.3326,-38.8377 26.3326,-63.5056l0 -246.161c0,-9.50234 3.50464,-17.34 10.3307,-23.8395 6.50747,-6.83404 14.5044,-10.3307 23.8395,-10.3307 9.82891,0 18.0011,3.49667 24.5006,10.3307 6.83404,6.49951 10.1634,14.3371 10.1634,23.8395l0 246.161z"/>
   <glyph unicode="k" horiz-adv-x="358" d="M225.165 10.8325c6.49951,-7.00131 14.5044,-10.498 23.8315,-10.8325 9.50234,-0.334533 17.6665,2.83557 24.5006,9.33508 7.16857,6.49951 10.8325,14.4964 11.167,23.8315 0.334533,9.50234 -2.8276,17.6665 -9.32711,24.5006l-158.672 185.499 143.172 142.169c6.82607,6.83404 10.1634,14.831 10.1634,24.3333 0,9.50234 -3.33737,17.4993 -10.1634,24.3333 -6.83404,6.66677 -15.0062,9.82891 -24.5006,9.82891 -9.50234,0 -17.4993,-3.16214 -24.3333,-9.82891l-142.169 -140.998 0 352.996c0,9.50234 -3.33737,17.4993 -10.1714,24.3333 -6.49951,6.66677 -14.6637,9.83688 -24.4926,9.83688 -9.50234,0 -17.34,-3.1701 -23.8395,-9.83688 -6.83404,-6.83404 -10.3307,-14.831 -10.3307,-24.3333l0 -611.336c0,-9.49438 3.49667,-17.4993 10.3307,-24.3333 6.49951,-6.66677 14.3371,-9.82891 23.8395,-9.82891 9.82891,0 17.9931,3.16214 24.4926,9.82891 6.83404,6.83404 10.1714,14.8389 10.1714,24.3333l0 159.166 156.331 -182.998z"/>
   <glyph unicode="e" horiz-adv-x="389" d="M68.8342 273.497l0 7.83764c0,24.6679 8.66601,45.8311 25.8308,63.3304 17.6665,17.6665 38.8377,26.4998 63.5056,26.4998 24.8272,0 45.8311,-8.83327 62.9958,-26.4998 17.6665,-17.4993 26.3326,-38.6625 26.3326,-63.3304l0 -7.83764 -178.665 0zm88.8345 -278.332c40.4945,0 75.6683,13.5008 105.999,40.5024 29.9965,27.0016 47.0019,60.6621 51.3349,100.997 0.995635,6.16497 -1.5054,12.8317 -7.33584,20.0003 -6.16497,7.50311 -14.0026,11.8361 -23.497,12.8317 -9.50234,1.0036 -17.6665,-1.49744 -24.8351,-7.32787 -7.50311,-6.17294 -11.8361,-12.5052 -12.8317,-18.6702 -2.50104,-22.6686 -12.3379,-41.6653 -29.1681,-56.4963 -15.6673,-14.3371 -33.8357,-21.5057 -54.6723,-21.5057l0 0 -4.49231 0c-24.6679,0 -45.839,8.17217 -63.5056,24.8351 -17.1647,17.4993 -25.8308,38.6705 -25.8308,63.4976l0 50.8331 205.666 0c27.83,0 41.8326,13.5008 41.8326,40.5024l0 36.1694c0,43.4973 -15.3328,80.8296 -46.3329,111.662 -30.8328,31.0001 -68.1652,46.5001 -111.83,46.5001 -43.5053,0 -80.8376,-15.5 -111.838,-46.5001 -30.8328,-30.8328 -46.3329,-68.1652 -46.3329,-111.662l0 -127.505c0,-43.6646 15.5,-80.8296 46.3329,-111.83 31.0001,-31.0001 68.1652,-46.3329 111.336,-46.3329l0 -0.5018z"/>
   <glyph unicode="T" horiz-adv-x="463" d="M229.498 611.83l0 -577.66c0,-9.50234 -3.49667,-17.34 -10.3307,-23.8395 -6.16497,-6.83404 -14.0026,-10.3307 -23.8315,-10.3307 -9.83688,0 -17.8338,3.49667 -24.5006,10.3307 -6.49951,6.49951 -9.66961,14.3371 -9.66961,23.8395l0 577.66 -126 0c-10.1634,0 -18.1683,3.33737 -24.3333,10.1714 -7.16857,6.66677 -10.8325,14.4964 -10.8325,23.9988 0,9.50234 3.66394,17.4993 10.8325,24.3333 6.16497,7.00131 14.1699,10.3307 24.3333,10.3307l320.833 0c9.66961,0 17.8338,-3.3294 24.3333,-10.3307 6.83404,-6.49951 10.3307,-14.4964 10.3307,-24.3333 0,-9.83688 -3.49667,-17.6665 -10.3307,-23.9988 -6.49951,-6.83404 -14.6637,-10.1714 -24.3333,-10.1714l-126.501 0z"/>
   <glyph unicode="b" horiz-adv-x="389" d="M247.499 158.171c0,-24.6679 -8.66601,-45.6718 -26.3326,-63.0038 -17.1647,-17.4993 -38.1687,-26.3326 -62.9958,-26.3326l-89.3363 0 0 211.497c0,24.6679 8.66601,45.839 25.8308,63.5056 17.6665,17.1647 38.8377,25.8308 63.5056,25.8308 24.8272,0 45.8311,-8.66601 62.9958,-25.8308 17.6665,-17.6665 26.3326,-38.8377 26.3326,-63.5056l0 -122.16zm-178.665 487.829c0,9.83688 -3.50464,17.8338 -10.6652,24.3333 -6.49951,7.00131 -14.6717,10.3307 -24.5006,10.3307 -9.33508,0 -17.332,-3.3294 -23.8315,-10.3307 -6.83404,-6.49951 -10.3387,-14.4964 -10.3387,-24.3333l0 -606.501c0,-26.3326 13.3335,-39.4988 40.0006,-39.4988l118.672 0c43.6646,0 80.9969,15.5 111.83,46.3329 31.0001,31.0001 46.3329,68.3324 46.3329,111.838l0 122.16c0,43.5053 -15.3328,80.8376 -46.3329,111.838 -30.8328,30.8328 -68.1652,46.3329 -111.83,46.3329 -32.5055,0 -62.3347,-9.33508 -89.3363,-27.838l0 235.336z"/>
   <glyph unicode="s" horiz-adv-x="385" d="M308.997 327.166c-2.1665,10.9998 -5.83044,21.665 -10.6652,31.6692 -6.83404,13.9946 -15.5,26.4998 -25.8308,37.1651 -28.0052,29.0009 -67.3368,43.4973 -117.668,43.4973 -59.6664,0 -102.335,-18.9967 -128.501,-56.6636 -15.5,-22.5014 -22.3341,-46.8347 -20.0003,-73.3345 1.99924,-26.6671 12.4972,-49.8295 31.8364,-69.6626 12.999,-13.8353 29.9965,-25.3369 51.1677,-34.8393 8.16421,-3.49667 17.6665,-6.99334 28.3318,-10.6652l14.1619 -4.8348 13.6681 -3.99847c41.3388,-12.6645 67.6713,-25.329 79.1649,-38.0014 6.83404,-8.16421 10.6732,-18.0011 11.6688,-29.3274 1.0036,-10.9998 -1.6647,-20.0003 -7.82967,-26.8344 -15.6673,-18.5029 -40.1679,-27.838 -73.669,-27.838l-1.0036 0c-0.995635,0.334533 -1.99924,0.5018 -2.99487,0.5018 -2.83557,0 -5.8384,0.334533 -8.66601,1.0036 -9.83688,0.995635 -18.8374,2.8276 -27.0016,5.83044 -26.3326,9.00054 -41.9999,24.5006 -47.3365,46.3329 -2.1665,9.16781 -7.49514,16.1691 -15.5,21.0039 -8.16421,4.82684 -16.8302,6.16497 -25.998,3.99847 -9.00054,-2.33377 -16.1691,-7.33584 -21.4978,-15.1655 -4.8348,-8.17217 -6.16497,-16.8382 -3.8312,-26.006 10.6652,-43.1628 38.8298,-73.6611 84.4936,-91.1604 14.6717,-6.00567 30.1717,-10.0041 46.8347,-12.3379 5.16934,-0.669067 10.3387,-0.995635 15.6673,-1.33017 1.49744,0 3.1701,0 4.8348,0l1.99924 0c22.6686,0 44.6682,3.66394 65.8314,11.167 25.1697,9.16781 45.3372,22.5014 60.67,40.0006 16.8302,19.4985 24.8351,43.33 23.8315,71.3273 -0.995635,27.6707 -10.498,51.8367 -28.8336,72.6734 -12.999,14.9982 -30.331,27.6627 -52.1633,37.6589 -8.49874,3.83917 -18.3356,7.83764 -29.3354,11.6688l-14.6637 5.00207 -14.1699 4.333c-40.3352,12.3299 -66.3332,24.6679 -78.1693,36.6633 -7.82967,8.17217 -12.1627,17.5072 -13.1663,28.3398 -0.995635,10.6652 1.83197,20.6614 8.33147,29.662 6.50747,9.16781 17.1727,16.1691 31.8364,21.0039 12.0034,3.99847 25.3369,5.83044 40.0006,5.83044 49.1684,0 78.1693,-19.8331 87.3371,-59.4992 2.3258,-9.16781 7.32787,-16.1691 15.1655,-21.0039 8.16421,-4.82684 16.9975,-6.33224 26.3326,-4.333 9.16781,2.1665 16.1611,7.33584 20.996,15.1735 5.16934,7.66241 6.66677,16.1611 4.333,25.329z"/>
   <glyph unicode="g" horiz-adv-x="389" d="M247.499 186.502c0,-24.6679 -8.66601,-45.6718 -26.3326,-63.0038 -17.1647,-17.4993 -38.1687,-26.3326 -62.9958,-26.3326 -24.6679,0 -45.839,8.83327 -63.5056,26.3326 -17.1647,17.332 -25.8308,38.3359 -25.8308,63.0038l0 99.6671c0,24.6679 8.66601,45.8311 25.8308,63.4976 17.6665,17.1647 38.8377,25.8308 63.5056,25.8308 24.8272,0 45.8311,-8.66601 62.9958,-25.8308 17.6665,-17.6665 26.3326,-38.8298 26.3326,-63.4976l0 -99.6671zm0 -322.665c0,-11.167 -8.49874,-21.1712 -25.8308,-30.339 -18.1683,-9.82891 -39.3316,-14.6637 -63.4976,-14.6637 -24.0068,0 -45.17,4.8348 -63.5056,14.6637 -17.1647,9.16781 -25.8308,19.172 -25.8308,30.339l0 11.1591c0,10.1714 7.99694,19.841 23.9988,29.3354 18.1683,10.3387 40.0006,15.6673 65.3376,15.6673 25.4962,0 46.994,-5.32864 64.9951,-15.6673 16.3364,-9.49438 24.3333,-19.164 24.3333,-29.3354l0 -11.1591zm60.67 472.664c2.8276,4.50027 5.49591,9.16781 7.82967,14.1619 9.33508,19.841 13.1663,40.5024 11.167,62.0002 -0.669067,9.33508 -4.50027,17.1727 -11.6688,23.3377 -7.16061,6.16497 -15.5,8.83327 -24.9944,7.82967 -9.33508,-0.661102 -17.1727,-4.50027 -23.3377,-11.6609 -6.33224,-7.16857 -9.00054,-15.5 -8.33147,-25.0024l0 -3.8312 -14.1699 15.1655c-26.3326,17.1647 -55.1662,25.8308 -86.4928,25.8308 -43.5053,0 -80.8376,-15.5 -111.838,-46.3329 -30.8328,-31.0001 -46.3329,-68.1652 -46.3329,-111.83l0 -99.6671c0,-37.6669 12.0034,-71.168 36.1694,-100.002 -19.5065,-18.6702 -29.3354,-43.4973 -29.3354,-74.8319 0,-26.3326 7.99694,-49.3357 23.9988,-68.8342 -20.5021,-20.1676 -30.8328,-42.8362 -30.8328,-67.8386l0 -11.1591c0,-32.0037 15.3328,-59.0053 45.8311,-81.1721 30.6656,-21.8323 68.1652,-32.6648 112.34,-32.6648 44.3257,0 81.666,10.8325 112.332,32.6648 30.6656,22.1668 45.8311,49.1684 45.8311,81.1721l0 11.1591c0,31.8364 -15.1655,58.8381 -45.8311,80.5031 -30.6656,22.1668 -68.0059,33.3339 -112.332,33.3339 -22.1668,0 -43.338,-3.1701 -63.5056,-9.33508 -7.49514,1.99924 -12.8317,7.00131 -16.0018,15.1655 -1.33017,2.83557 -2.1665,6.17294 -2.49307,9.66961l-0.5018 3.99847 0 3.33737c0,9.16781 1.83197,16.4957 5.32864,21.9996 3.00284,4.333 6.83404,7.32787 11.8361,9.33508 20.8367,-9.83688 42.6689,-14.6717 65.3376,-14.6717 43.6646,0 80.9969,15.5 111.83,46.3329 31.0001,31.0001 46.3329,68.1652 46.3329,111.838l0 99.6671c0,17.4993 -2.6683,34.3295 -8.16421,50.3313z"/>
   <glyph unicode="d" horiz-adv-x="389" d="M68.3324 280.331c0,24.6679 8.83327,45.839 26.3326,63.5056 17.332,17.1647 38.3359,25.8308 63.0038,25.8308 24.8351,0 45.9983,-8.66601 63.4976,-25.8308 17.332,-17.6665 25.8308,-38.8377 25.8308,-63.5056l0 -211.497 -89.3284 0c-24.6679,0 -45.6718,8.83327 -63.0038,26.3326 -17.4993,17.332 -26.3326,38.3359 -26.3326,63.0038l0 122.16zm178.665 130.333c-26.9937,18.5029 -56.6636,27.838 -89.3284,27.838 -43.5053,0 -80.8376,-15.5 -111.838,-46.3329 -30.8328,-31.0001 -46.3329,-68.3324 -46.3329,-111.838l0 -122.16c0,-43.5053 15.5,-80.8376 46.3329,-111.838 31.0001,-30.8328 68.3324,-46.3329 111.838,-46.3329l119.166 0c26.3326,0 39.4988,13.1663 39.4988,39.4988l0 606.501c0,9.83688 -3.3294,17.8338 -10.1634,24.3333 -6.49951,7.00131 -14.5044,10.3307 -24.0068,10.3307 -9.66164,0 -17.8259,-3.3294 -24.3333,-10.3307 -7.16061,-6.49951 -10.8325,-14.4964 -10.8325,-24.3333l0 -235.336z"/>
   <glyph unicode=" " horiz-adv-x="137" d=""/>
   <glyph unicode="u" horiz-adv-x="389" d="M247.499 398.501c0,9.66961 3.50464,17.8338 10.3307,24.3333 6.50747,6.83404 14.5044,10.3307 23.8395,10.3307 9.82891,0 18.0011,-3.49667 24.5006,-10.3307 6.83404,-6.49951 10.1634,-14.6637 10.1634,-24.3333l0 -245.165c0,-43.6725 -15.3328,-80.8376 -46.3329,-111.838 -30.8328,-30.8328 -68.1652,-46.3329 -111.83,-46.3329 -43.5053,0 -80.8376,15.5 -111.838,46.3329 -30.8328,31.0001 -46.3329,68.1652 -46.3329,111.838l0 245.165c0,9.66961 3.49667,17.8338 10.3307,24.3333 6.49951,6.83404 14.3371,10.3307 23.8395,10.3307 9.82891,0 17.9931,-3.49667 24.4926,-10.3307 6.83404,-6.49951 10.1714,-14.6637 10.1714,-24.3333l0 -245.165c0,-24.6679 8.66601,-45.839 25.8308,-63.5056 17.6665,-17.1647 38.8377,-25.8308 63.5056,-25.8308 24.8272,0 45.8311,8.66601 62.9958,25.8308 17.6665,17.6665 26.3326,38.8377 26.3326,63.5056l0 245.165z"/>
   <glyph unicode="S" horiz-adv-x="451" d="M378.501 518.997c0,47.8383 -18.6702,89.0018 -55.668,123.172 -37.1651,33.8277 -81.8332,50.6659 -133.829,50.6659 -52.1713,0 -96.5049,-16.8382 -133.335,-50.6659 -37.1651,-34.1702 -55.668,-75.3337 -55.668,-123.172l0 -33.1666c0,-20.8287 4.333,-41.4981 13.1663,-62.0002 14.0026,-32.4975 38.5032,-58.161 73.3345,-76.6639 13.3335,-7.16857 28.6663,-13.5008 46.3329,-18.9967 6.83404,-2.33377 14.4964,-4.66754 23.0032,-6.83404l11.167 -3.00284 10.6652 -2.83557c11.167,-2.99487 18.9967,-5.16137 23.497,-6.49951 43.33,-11.9954 73.3345,-28.3318 90.332,-49.1605 12.0034,-14.3371 18.0011,-31.8364 18.0011,-52.3385l0 -44.3336c0,-29.0009 -11.8361,-53.828 -35.5004,-74.3301 -23.497,-20.5021 -51.8288,-30.6656 -84.9954,-30.6656 -33.1666,0 -61.5064,10.1634 -85.0033,30.6656 -23.497,20.5021 -35.1658,45.3293 -35.1658,74.3301l0 43.8318c0,9.50234 -3.33737,17.5072 -10.1714,24.0068 -6.49951,6.82607 -14.6637,10.1634 -24.4926,10.1634 -9.50234,0 -17.34,-3.33737 -23.8395,-10.1634 -6.83404,-6.49951 -10.3307,-14.5044 -10.3307,-24.0068l0 -43.8318c0,-47.9976 18.5029,-89.0018 55.668,-123.164 36.8305,-33.8357 81.1642,-50.6659 133.335,-50.6659 51.996,0 96.6642,16.8302 133.829,50.6659 36.9978,34.1622 55.668,75.1665 55.668,123.164l0 44.3336c0,34.5047 -10.1634,65.003 -30.331,91.3356 -26.3326,34.4968 -69.1688,60.001 -128.501,76.6639l-12.1706 3.33737 -12.6645 2.99487 -18.5029 4.8348 -18.1604 5.50387c-13.3335,4.16574 -24.6679,8.49874 -34.1702,13.1663 -23.3377,11.3343 -39.1643,26.4998 -47.3365,45.3293 -5.16137,12.0034 -7.82967,23.8395 -7.82967,35.1658l0 33.1666c0,29.0009 11.6688,53.836 35.1658,74.3381 23.497,20.5021 51.8367,30.6656 85.0033,30.6656 33.1666,0 61.6657,-10.1634 85.4972,-30.6656 23.3297,-20.5021 34.9986,-45.3372 34.9986,-74.3381l0 -15.1655c0.669067,-7.99694 4.16574,-14.9982 10.3307,-20.996 6.49951,-6.83404 14.5044,-10.1714 24.0068,-10.1714 9.66164,0 17.8338,3.33737 24.3333,10.1714 6.16497,5.99771 9.66164,12.999 10.3307,20.996l0 15.1655z"/>
   <glyph unicode="a" horiz-adv-x="374" d="M68.8342 157.167c0,19.6658 7.99694,36.3367 23.9988,50.3313 15.8346,14.0026 35.1658,21.0039 57.4999,21.0039 22.5014,0 41.6653,-7.00131 57.6672,-21.0039 16.0018,-13.9946 23.9988,-30.6656 23.9988,-50.3313l0 -88.3327 -81.666 0c-22.3341,0 -41.6653,6.83404 -57.4999,20.5021 -16.0018,13.9946 -23.9988,30.8328 -23.9988,50.3313l0 17.4993zm-6.33224 258.833c-9.50234,-5.16934 -18.0011,-10.9998 -25.8387,-17.4993 -2.66034,-1.99924 -5.16137,-3.99847 -7.32787,-5.99771 -0.669067,-0.5018 -1.33813,-1.17087 -1.99924,-1.83993l-0.5018 -0.493835 -0.5018 -0.5018c-6.49951,-6.83404 -9.66961,-14.9982 -9.66961,-24.5006 0,-9.33508 3.33737,-17.4993 10.1714,-24.3333 6.83404,-6.49951 14.9982,-9.83688 24.5006,-9.83688 9.33508,0 17.332,3.50464 23.8315,10.3387l0.5018 0.493835 0.995635 1.0036c1.33813,1.0036 2.83557,1.99924 4.333,3.33737 5.00207,3.99847 10.3387,7.32787 16.1691,10.3307 18.5029,10.3307 38.0014,15.5 58.169,15.5 28.3318,0 48.1648,-5.50387 59.4992,-16.5036 11.3343,-10.8325 17.1647,-29.4947 17.1647,-56.1618l0 -24.8351c-24.8351,14.831 -51.996,22.3341 -81.666,22.3341 -41.3308,0 -76.8312,-13.5008 -106.334,-40.5024 -29.3354,-27.3362 -43.9991,-60.3355 -43.9991,-99.1653l0 -17.4993c0,-38.5032 14.6637,-71.3353 43.9991,-98.6714 29.5027,-27.3282 65.003,-40.9963 106.334,-40.9963l115.836 0c9.66164,0 17.8338,3.49667 24.3333,10.3307 6.83404,6.49951 10.3307,14.3371 10.3307,23.8395l0 265.166c0,45.4965 -12.4972,80.4951 -37.6669,104.996 -25.0024,23.9988 -60.9966,36.1694 -107.831,36.1694 -32.6648,0 -63.5056,-8.16421 -92.833,-24.5006z"/>
   <glyph unicode="r" horiz-adv-x="378" d="M68.8342 280.331c0,24.6679 8.66601,45.839 25.8308,63.5056 17.6665,17.1647 38.8377,25.8308 63.5056,25.8308 16.9975,0 32.6648,-4.50027 46.8267,-13.1663 14.3371,-8.83327 25.3369,-20.6694 32.8321,-35.6676 4.1737,-8.49874 10.8405,-14.1699 20.0003,-17.1647 9.16781,-3.1701 17.8338,-2.50104 26.3405,1.99924 8.49874,4.16574 14.1619,10.8325 17.1647,20.0003 2.83557,8.83327 2.1665,17.4993 -1.99924,25.8308 -13.6681,26.8344 -32.9993,47.9976 -58.169,63.4976 -25.3369,15.6673 -52.9996,23.505 -82.9961,23.505 -43.5053,0 -80.8376,-15.5 -111.838,-46.3329 -30.8328,-31.0001 -46.3329,-68.3324 -46.3329,-111.838l0 -245.165c0,-9.50234 3.49667,-17.4993 10.3307,-24.3333 6.49951,-7.00131 14.3371,-10.3307 23.8395,-10.3307 9.82891,0 17.9931,3.3294 24.4926,10.3307 6.83404,6.83404 10.1714,14.831 10.1714,24.3333l0 245.165z"/>
   <glyph unicode="o" horiz-adv-x="389" d="M247.499 153.336c0,-24.6679 -8.66601,-45.839 -26.3326,-63.5056 -17.1647,-17.1647 -38.1687,-25.8308 -62.9958,-25.8308 -24.6679,0 -45.839,8.66601 -63.5056,25.8308 -17.1647,17.6665 -25.8308,38.8377 -25.8308,63.5056l0 127.497c0,24.6679 8.66601,45.8311 25.8308,63.3304 17.6665,17.6665 38.8377,26.4998 63.5056,26.4998 24.8272,0 45.8311,-8.83327 62.9958,-26.4998 17.6665,-17.4993 26.3326,-38.6625 26.3326,-63.3304l0 -127.497zm-89.3284 285.668c-43.5053,0 -80.8376,-15.5 -111.838,-46.5001 -30.8328,-30.8328 -46.3329,-68.1731 -46.3329,-111.67l0 -127.497c0,-43.6725 15.5,-80.8376 46.3329,-111.838 31.0001,-30.8328 68.3324,-46.3329 111.838,-46.3329 43.6646,0 80.9969,15.5 111.83,46.3329 31.0001,31.0001 46.3329,68.1652 46.3329,111.838l0 127.497c0,43.4973 -15.3328,80.8376 -46.3329,111.67 -30.8328,31.0001 -68.1652,46.5001 -111.83,46.5001z"/>
   <glyph unicode="l" horiz-adv-x="142" d="M68.8342 646c0,9.83688 -3.33737,17.8338 -10.1714,24.3333 -6.49951,7.00131 -14.6637,10.3307 -24.4926,10.3307 -9.50234,0 -17.34,-3.3294 -23.8395,-10.3307 -6.83404,-6.49951 -10.3307,-14.4964 -10.3307,-24.3333l0 -611.83c0,-9.50234 3.49667,-17.34 10.3307,-23.8395 6.49951,-6.83404 14.3371,-10.3307 23.8395,-10.3307 9.82891,0 17.9931,3.49667 24.4926,10.3307 6.83404,6.49951 10.1714,14.3371 10.1714,23.8395l0 611.83z"/>
   <glyph unicode="i" horiz-adv-x="142" d="M68.8342 398.501c0,9.66961 -3.33737,17.8338 -10.1714,24.3333 -6.49951,6.83404 -14.6637,10.3307 -24.4926,10.3307 -9.50234,0 -17.34,-3.49667 -23.8395,-10.3307 -6.83404,-6.49951 -10.3307,-14.6637 -10.3307,-24.3333l0 -364.331c0,-9.50234 3.49667,-17.34 10.3307,-23.8395 6.49951,-6.83404 14.3371,-10.3307 23.8395,-10.3307 9.82891,0 17.9931,3.49667 24.4926,10.3307 6.83404,6.49951 10.1714,14.3371 10.1714,23.8395l0 364.331zm-5.83044 160.162c-7.83764,7.67037 -17.5072,11.6688 -28.8336,11.6688 -11.3343,0 -20.8367,-3.99847 -28.3398,-11.6688 -7.82967,-7.82967 -11.6609,-17.4993 -11.6609,-28.8256 0,-11.167 3.8312,-20.5021 11.6609,-28.3398 7.50311,-7.82967 17.0054,-11.6609 28.3398,-11.6609 11.3263,0 20.996,3.8312 28.8336,11.6609 7.82967,7.83764 11.6609,17.1727 11.6609,28.3398 0,11.3263 -3.8312,20.996 -11.6609,28.8256z"/>
  </font>
  <style type="text/css">
   <![CDATA[
    @font-face { font-family:"Cronus Round";font-variant:normal;font-style:normal;font-weight:normal;src:url("#FontID0") format(svg)}
    .str0 {stroke:#3F98F7;stroke-width:119.941}
    .fil4 {fill:none}
    .fil3 {fill:black}
    .fil1 {fill:#3F98F7}
    .fil0 {fill:#FCC911}
    .fil2 {fill:#3F98F7;fill-rule:nonzero}
    .fnt0 {font-weight:normal;font-size:1422.88px;font-family:'Cronus Round'}
   ]]>
  </style>
 </defs>
 <g id="Layer_x0020_1">
  <metadata id="CorelCorpID_0Corel-Layer"/>
  <path class="fil0" d="M3553 3065c-474,161 -220,844 233,683 424,-150 228,-841 -233,-683z"/>
  <path class="fil0" d="M1583 3066c-469,150 -231,837 230,683 408,-137 239,-832 -230,-683z"/>
  <path class="fil1" d="M2302 4625c-275,-19 -607,-226 -768,-359 -112,-93 -193,-215 -393,-196 -286,28 -523,439 281,921 306,183 502,199 880,283 32,743 -63,1147 315,1690 246,353 714,702 1333,681 344,-11 426,-376 209,-556 -119,-99 -501,-56 -766,-234 -486,-328 -469,-811 -455,-1571 384,-71 597,-75 931,-258 843,-464 659,-914 356,-954 -346,-45 -539,530 -1285,567 -19,-398 -3,-828 -3,-1230 -1,-460 -33,-741 194,-1068 171,-246 413,-383 819,-423 468,-46 402,-598 27,-623 -764,-51 -1305,486 -1525,980 -255,574 -122,1642 -150,2350z"/>
  <path class="fil2 str0" d="M6203 6693c0,146 -51,272 -156,377 -102,102 -227,153 -374,153 -147,0 -272,-51 -377,-153 -102,-105 -153,-231 -153,-377l0 -757c0,-146 51,-272 153,-376 105,-104 230,-157 377,-157 147,0 272,53 374,157 105,104 156,230 156,376l0 757zm-530 -1695c-258,0 -480,92 -664,276 -183,183 -275,404 -275,662l0 757c0,259 92,480 275,664 184,183 406,275 664,275 259,0 481,-92 664,-275 184,-184 275,-405 275,-664l0 -757c0,-258 -91,-479 -275,-662 -183,-184 -405,-276 -664,-276zm1779 941c0,-146 53,-272 157,-377 102,-101 227,-153 373,-153 148,0 273,52 377,153 103,105 154,231 154,377l0 1255 -531 0c-146,0 -271,-52 -373,-156 -104,-103 -157,-227 -157,-374l0 -725zm1061 -773c-161,-110 -337,-165 -531,-165 -258,0 -479,92 -663,275 -183,184 -275,405 -275,663l0 725c0,258 92,480 275,664 184,183 405,275 663,275l708 0c156,0 234,-78 234,-234l0 -3600c0,-58 -20,-106 -60,-144 -39,-42 -86,-62 -143,-62 -57,0 -105,20 -144,62 -43,38 -64,86 -64,144l0 1397zm2315 72c0,-57 21,-106 62,-144 38,-41 86,-62 141,-62 58,0 107,21 145,62 41,38 61,87 61,144l0 1455c0,259 -91,480 -275,664 -183,183 -405,275 -664,275 -258,0 -480,-92 -664,-275 -183,-184 -275,-405 -275,-664l0 -1455c0,-57 21,-106 62,-144 38,-41 85,-62 141,-62 58,0 107,21 146,62 40,38 60,87 60,144l0 1455c0,146 51,272 153,377 105,102 231,153 377,153 147,0 272,-51 374,-153 105,-105 156,-231 156,-377l0 -1455zm3252 1589c0,109 -39,203 -118,280 -78,78 -171,116 -282,116 -108,0 -202,-38 -281,-116 -77,-77 -115,-171 -113,-280l0 -1589c0,-57 -21,-106 -61,-144 -39,-41 -87,-62 -145,-62 -56,0 -103,21 -142,62 -43,38 -63,87 -63,144l0 1589c0,109 -39,203 -116,280 -77,78 -171,116 -281,116 -111,0 -205,-38 -282,-116 -77,-77 -116,-171 -116,-280l0 -1589c0,-57 -19,-106 -60,-144 -38,-41 -87,-62 -145,-62 -57,0 -103,21 -142,62 -40,38 -61,87 -61,144l0 1589c0,221 79,411 237,567 157,159 347,238 569,238 239,0 440,-91 602,-272 161,181 360,272 600,272 222,0 412,-79 571,-238 159,-156 238,-346 238,-567l0 -1589c0,-57 -21,-106 -61,-144 -39,-41 -87,-62 -145,-62 -56,0 -104,21 -142,62 -41,38 -61,87 -61,144l0 1589zm2312 -134c0,146 -51,272 -156,377 -102,102 -227,153 -374,153 -147,0 -272,-51 -377,-153 -102,-105 -153,-231 -153,-377l0 -757c0,-146 51,-272 153,-376 105,-104 230,-157 377,-157 147,0 272,53 374,157 105,104 156,230 156,376l0 757zm-530 -1695c-258,0 -480,92 -664,276 -183,183 -275,404 -275,662l0 757c0,259 92,480 275,664 184,183 406,275 664,275 259,0 481,-92 664,-275 184,-184 275,-405 275,-664l0 -757c0,-258 -91,-479 -275,-662 -183,-184 -405,-276 -664,-276z"/>
  <text x="3010" y="8874"  class="fil3 fnt0">Solusi Terbaik Undangan Digital</text>
  <rect class="fil4" width="19267" height="730" rx="1133" ry="365"/>
 </g>
</svg>
